{
  "year": 2008,
  "daiHoc": [
    {
      "khoiKey": "A DH2008",
      "deThiMon": [
        {
          "mon": "Toan",
          "khoi": "A",
          "deThi": {
            "link": "http://www.thongtintuyensinh.vn/upload/file/De%20thi2008ToanA.pdf",
            "statusDownload": false,
            "detail": "Toán",
            "level": "Đại học",
            "text": "Đề thi khối A năm 2008"
          },
          "dapAn": {
            "link": "http://www.thongtintuyensinh.vn/upload/file/Dapan2008ToanA.pdf",
            "statusDownload": false,
            "detail": "Toán",
            "level": "Đại học",
            "text": "Đáp án khối A năm 2008"
          }
        },
        {
          "mon": "ly",
          "khoi": "A",
          "deThi": {
            "link": "http://www.thongtintuyensinh.vn/upload/file/Dethi2008Ly1A.pdf",
            "statusDownload": false,
            "detail": "Lý",
            "level": "Đại học",
            "text": "Đề thi khối A năm 2008"
          },
          "dapAn": {
            "link": "http://www.thongtintuyensinh.vn/upload/file/Dapan2008LyA.pdf",
            "statusDownload": false,
            "detail": "Lý",
            "level": "Đại học",
            "text": "Đáp án khối A năm 2008"
          }
        },
        {
          "mon": "hoa",
          "khoi": "A",
          "deThi": {
            "link": "http://www.thongtintuyensinh.vn/upload/file/Dethi2008HoaA.pdf",
            "statusDownload": false,
            "detail": "Hóa",
            "level": "Đại học",
            "text": "Đề thi khối A năm 2008"
          },
          "dapAn": {
            "link": "http://www.thongtintuyensinh.vn/upload/file/Dapan2008HoaA.pdf",
            "statusDownload": false,
            "detail": "Hóa",
            "level": "Đại học",
            "text": "Đáp án khối A năm 2008"
          }
        }
      ]
    },
    {
      "khoiKey": "B DH2008",
      "deThiMon": [
        {
          "mon": "Toan",
          "khoi": "B",
          "deThi": {
            "link": "http://thongtintuyensinh.vn/upload/file/Dethi2008ToanB.pdf",
            "statusDownload": false,
            "detail": "Toán",
            "level": "Đại học",
            "text": "Đề thi khối B năm 2008"
          },
          "dapAn": {
            "link": "http://thongtintuyensinh.vn/upload/file/Dapan2008ToanB.pdf",
            "statusDownload": false,
            "detail": "Toán",
            "level": "Đại học",
            "text": "Đáp án khối B năm 2008"
          }
        },
        {
          "mon": "hoa",
          "khoi": "B",
          "deThi": {
            "link": "http://thongtintuyensinh.vn/upload/file/Dethi2008HoaB.pdf",
            "statusDownload": false,
            "detail": "Hóa",
            "level": "Đại học",
            "text": "Đề thi khối B năm 2008"
          },
          "dapAn": {
            "link": "http://thongtintuyensinh.vn/upload/file/Dapan2008HoaB.pdf",
            "statusDownload": false,
            "detail": "Hóa",
            "level": "Đại học",
            "text": "Đáp án khối B năm 2008"
          }
        },
        {
          "mon": "sinh",
          "khoi": "B",
          "deThi": {
            "link": "http://thongtintuyensinh.vn/upload/file/Dethi2008SinhB.pdf",
            "statusDownload": false,
            "detail": "Sinh",
            "level": "Đại học",
            "text": "Đề thi khối B năm 2008"
          },
          "dapAn": {
            "link": "http://thongtintuyensinh.vn/upload/file/Dapan2008SinhB.pdf",
            "statusDownload": false,
            "detail": "Sinh",
            "level": "Đại học",
            "text": "Đáp án khối B năm 2008"
          }
        }
      ]
    },
    {
      "khoiKey": "C DH2008",
      "deThiMon": [
        {
          "mon": "Van",
          "khoi": "C",
          "deThi": {
            "link": "http://thongtintuyensinh.vn/upload/file/Dethi%202008VanC.pdf",
            "statusDownload": false,
            "detail": "Văn",
            "level": "Đại học",
            "text": "Đề thi khối C năm 2008"
          },
          "dapAn": {
            "link": "http://thongtintuyensinh.vn/upload/file/Dapan2008VanC(1).pdf",
            "statusDownload": false,
            "detail": "Văn",
            "level": "Đại học",
            "text": "Đáp án khối C năm 2008"
          }
        },
        {
          "mon": "su",
          "khoi": "C",
          "deThi": {
            "link": "http://thongtintuyensinh.vn/upload/file/Dethi2008SuC.pdf",
            "statusDownload": false,
            "detail": "Sử",
            "level": "Đại học",
            "text": "Đề thi khối C năm 2008"
          },
          "dapAn": {
            "link": "http://thongtintuyensinh.vn/upload/file/Dapan2008SuC.pdf",
            "statusDownload": false,
            "detail": "Sử",
            "level": "Đại học",
            "text": "Đáp án khối C năm 2008"
          }
        },
        {
          "mon": "dia",
          "khoi": "C",
          "deThi": {
            "link": "http://thongtintuyensinh.vn/upload/file/Dethi2008DiaC.pdf",
            "statusDownload": false,
            "detail": "Địa",
            "level": "Đại học",
            "text": "Đề thi khối C năm 2008"
          },
          "dapAn": {
            "link": "http://thongtintuyensinh.vn/upload/file/Dapan2008DiaC.pdf",
            "statusDownload": false,
            "detail": "Địa",
            "level": "Đại học",
            "text": "Đáp án khối C năm 2008"
          }
        }
      ]
    },
    {
      "khoiKey": "D DH2008",
      "deThiMon": [
        {
          "mon": "toan",
          "khoi": "D",
          "deThi": {
            "link": "http://thongtintuyensinh.vn/upload/file/DT2008ToanD.pdf",
            "statusDownload": false,
            "detail": "Toán",
            "level": "Đại học",
            "text": "Đề thi khối D năm 2008"
          },
          "dapAn": {
            "link": "http://thongtintuyensinh.vn/upload/file/DA%202008%20Toan%20D.pdf",
            "statusDownload": false,
            "detail": "Toán",
            "level": "Đại học",
            "text": "Đáp án khối D năm 2008"
          }
        },
        {
          "mon": "van",
          "khoi": "D",
          "deThi": {
            "link": "http://thongtintuyensinh.vn/upload/file/DT%202008%20Van%20D.pdf",
            "statusDownload": false,
            "detail": "Văn",
            "level": "Đại học",
            "text": "Đề thi khối D năm 2008"
          },
          "dapAn": {
            "link": "http://thongtintuyensinh.vn/upload/file/DA%202008%20Van%20D.pdf",
            "statusDownload": false,
            "detail": "Văn",
            "level": "Đại học",
            "text": "Đáp án khối D năm 2008"
          }
        },
        {
          "mon": "tieng anh",
          "khoi": "D",
          "deThi": {
            "link": "http://thongtintuyensinh.vn/upload/file/DT%202008%20Anh%20D.pdf",
            "statusDownload": false,
            "detail": "Tiếng anh",
            "level": "Đại học",
            "text": "Đề thi khối D năm 2008"
          },
          "dapAn": {
            "link": "http://thongtintuyensinh.vn/upload/file/DA%202008%20Anh%20D.pdf",
            "statusDownload": false,
            "detail": "Tiếng anh",
            "level": "Đại học",
            "text": "Đáp án khối D năm 2008"
          }
        },
        {
          "mon": "tieng phap",
          "khoi": "D",
          "deThi": {
            "link": "http://thongtintuyensinh.vn/upload/file/De2008PhapD_M376.pdf",
            "statusDownload": false,
            "detail": "Tiếng pháp",
            "level": "Đại học",
            "text": "Đề thi khối D năm 2008"
          },
          "dapAn": {
            "link": "http://thongtintuyensinh.vn/upload/file/DA2008PhapD.pdf",
            "statusDownload": false,
            "detail": "Tiếng pháp",
            "level": "Đại học",
            "text": "Đáp án khối D năm 2008"
          }
        },
        {
          "mon": "tieng nga",
          "khoi": "D",
          "deThi": {
            "link": "http://thongtintuyensinh.vn/upload/file/De2008NgaD_M317.pdf",
            "statusDownload": false,
            "detail": "Tiếng nga",
            "level": "Đại học",
            "text": "Đề thi khối D năm 2008"
          },
          "dapAn": {
            "link": "http://thongtintuyensinh.vn/upload/file/DA2008NgaD.pdf",
            "statusDownload": false,
            "detail": "Tiếng nga",
            "level": "Đại học",
            "text": "Đáp án khối D năm 2008"
          }
        },
        {
          "mon": "tieng trung",
          "khoi": "D",
          "deThi": {
            "link": "http://thongtintuyensinh.vn/upload/file/De2008TrungD_M357.pdf",
            "statusDownload": false,
            "detail": "Tiếng trung",
            "level": "Đại học",
            "text": "Đề thi khối D năm 2008"
          },
          "dapAn": {
            "link": "http://thongtintuyensinh.vn/upload/file/DA2008TrungD.pdf",
            "statusDownload": false,
            "detail": "Tiếng trung",
            "level": "Đại học",
            "text": "Đáp án khối D năm 2008"
          }
        },
        {
          "mon": "tieng duc",
          "khoi": "D",
          "deThi": {
            "link": "http://thongtintuyensinh.vn/upload/file/De2008DucD_M936.pdf",
            "statusDownload": false,
            "detail": "Tiếng đức",
            "level": "Đại học",
            "text": "Đề thi khối D năm 2008"
          },
          "dapAn": {
            "link": "http://thongtintuyensinh.vn/upload/file/DA2008DucD.pdf",
            "statusDownload": false,
            "detail": "Tiếng đức",
            "level": "Đại học",
            "text": "Đáp án khối D năm 2008"
          }
        },
        {
          "mon": "tieng nhat",
          "khoi": "D",
          "deThi": {
            "link": "http://thongtintuyensinh.vn/upload/file/De2008NhatD_M235.pdf",
            "statusDownload": false,
            "detail": "Tiếng nhật",
            "level": "Đại học",
            "text": "Đề thi khối D năm 2008"
          },
          "dapAn": {
            "link": "http://thongtintuyensinh.vn/upload/file/DA2008NhatD.pdf",
            "statusDownload": false,
            "detail": "Tiếng nhật",
            "level": "Đại học",
            "text": "Đáp án khối D năm 2008"
          }
        }
      ]
    }
  ],
  "caoDang": [
    {
      "khoiKey": "A CD2008",
      "deThiMon": [
        {
          "mon": "Toan",
          "khoi": "A",
          "deThi": {
            "link": "http://www.thongtintuyensinh.vn/upload/file/2008DeToanA_Caodang.pdf",
            "statusDownload": false,
            "level": "Cao đẳng",
            "detail": "Toán",
            "text": "Đề thi khối A năm 2008"
          },
          "dapAn": {
            "link": "http://www.thongtintuyensinh.vn/upload/file/2008DapanToanA_Caodang.pdf",
            "statusDownload": false,
            "detail": "Toán",
            "level": "Cao đẳng",
            "text": "Đáp án khối A năm 2008"
          }
        },
        {
          "mon": "Ly",
          "khoi": "A",
          "deThi": {
            "link": "http://www.thongtintuyensinh.vn/upload/file/2008DeLyA_CaodangM428.pdf",
            "statusDownload": false,
            "level": "Cao đẳng",
            "detail": "Lý",
            "text": "Đề thi khối A năm 2008"
          },
          "dapAn": {
            "link": "http://www.thongtintuyensinh.vn/upload/file/2008DapanLyA_Cao%20dang.pdf",
            "statusDownload": false,
            "detail": "Lý",
            "level": "Cao đẳng",
            "text": "Đáp án khối A năm 2008"
          }
        },
        {
          "mon": "Hoa",
          "khoi": "A",
          "deThi": {
            "link": "http://www.thongtintuyensinh.vn/upload/file/2008DeHoaA_Caodang_M420.pdf",
            "statusDownload": false,
            "level": "Cao đẳng",
            "detail": "Hóa",
            "text": "Đề thi khối A năm 2008"
          },
          "dapAn": {
            "link": "http://www.thongtintuyensinh.vn/upload/file/2008DapanHoaA_Caodang.pdf",
            "statusDownload": false,
            "detail": "Hóa",
            "level": "Cao đẳng",
            "text": "Đáp án khối A năm 2008"
          }
        }
      ]
    },
    {
      "khoiKey": "B CD2008",
      "deThiMon": [
        {
          "mon": "Toan",
          "khoi": "B",
          "deThi": {
            "link": "http://www.thongtintuyensinh.vn/upload/file/2008DeToanB_Cdang.pdf",
            "statusDownload": false,
            "level": "Cao đẳng",
            "detail": "Toán",
            "text": "Đề thi khối B năm 2008"
          },
          "dapAn": {
            "link": "http://www.thongtintuyensinh.vn/upload/file/2008DapanToanB_Cdang.pdf",
            "statusDownload": false,
            "detail": "Toán",
            "level": "Cao đẳng",
            "text": "Đáp án khối B năm 2008"
          }
        },
        {
          "mon": "Hoa",
          "khoi": "B",
          "deThi": {
            "link": "http://www.thongtintuyensinh.vn/upload/file/2008DeHoaB_Cdang_M529.pdf",
            "statusDownload": false,
            "level": "Cao đẳng",
            "detail": "Hoá",
            "text": "Đề thi khối B năm 2008"
          },
          "dapAn": {
            "link": "http://www.thongtintuyensinh.vn/upload/file/2008DapanHoaB_Cdang.pdf",
            "statusDownload": false,
            "detail": "Hóa",
            "level": "Cao đẳng",
            "text": "Đáp án khối B năm 2008"
          }
        },
        {
          "mon": "Sinh",
          "khoi": "B",
          "deThi": {
            "link": "http://www.thongtintuyensinh.vn/upload/file/2008DeSinhB_Caodang_M524.pdf",
            "statusDownload": false,
            "level": "Cao đẳng",
            "detail": "Sinh",
            "text": "Đề thi khối B năm 2008"
          },
          "dapAn": {
            "link": "http://www.thongtintuyensinh.vn/upload/file/2008DapanSinhB_Cdang.pdf",
            "statusDownload": false,
            "detail": "Sinh",
            "level": "Cao đẳng",
            "text": "Đáp án khối B năm 2008"
          }
        }
      ]
    },
    {
      "khoiKey": "C CD2008",
      "deThiMon": [
        {
          "mon": "Van",
          "khoi": "C",
          "deThi": {
            "link": "http://www.thongtintuyensinh.vn/upload/file/2008DeVanC_Caodang.pdf",
            "statusDownload": false,
            "level": "Cao đẳng",
            "detail": "Văn",
            "text": "Đề thi khối C năm 2008"
          },
          "dapAn": {
            "link": "http://www.thongtintuyensinh.vn/upload/file/2008DapanVanC_Caodang.pdf",
            "statusDownload": false,
            "detail": "Văn",
            "level": "Cao đẳng",
            "text": "Đáp án khối C năm 2008"
          }
        },
        {
          "mon": "Su",
          "khoi": "C",
          "deThi": {
            "link": "http://www.thongtintuyensinh.vn/upload/file/2008DeSuC_Caodang.pdf",
            "statusDownload": false,
            "level": "Cao đẳng",
            "detail": "Sử",
            "text": "Đề thi khối C năm 2008"
          },
          "dapAn": {
            "link": "http://www.thongtintuyensinh.vn/upload/file/2008DapanSuC_Caodang.pdf",
            "statusDownload": false,
            "detail": "Sử",
            "level": "Cao đẳng",
            "text": "Đáp án khối C năm 2008"
          }
        },
        {
          "mon": "Dia",
          "khoi": "C",
          "deThi": {
            "link": "http://www.thongtintuyensinh.vn/upload/file/2008DeDiaC_Caodang.pdf",
            "statusDownload": false,
            "level": "Cao đẳng",
            "detail": "Địa",
            "text": "Đề thi khối C năm 2008"
          },
          "dapAn": {
            "link": "http://www.thongtintuyensinh.vn/upload/file/2008DapanDiaC_Caodang.pdf",
            "statusDownload": false,
            "detail": "Địa",
            "level": "Cao đẳng",
            "text": "Đáp án khối C năm 2008"
          }
        }
      ]
    },
    {
      "khoiKey": "D CD2008",
      "deThiMon": [
        {
          "mon": "toan",
          "khoi": "D",
          "deThi": {
            "link": "http://www.thongtintuyensinh.vn/upload/file/2008DeToanD_Caodang.pdf",
            "statusDownload": false,
            "level": "Cao đẳng",
            "detail": "Toán",
            "text": "Đề thi khối D năm 2008"
          },
          "dapAn": {
            "link": "http://www.thongtintuyensinh.vn/upload/file/2008DapanToanD_Caodang.pdf",
            "statusDownload": false,
            "detail": "Toán",
            "level": "Cao đẳng",
            "text": "Đáp án khối D năm 2008"
          }
        },
        {
          "mon": "van",
          "khoi": "D",
          "deThi": {
            "link": "http://www.thongtintuyensinh.vn/upload/file/2008DeVanD_Caodang.pdf",
            "statusDownload": false,
            "level": "Cao đẳng",
            "detail": "Văn",
            "text": "Đề thi khối D năm 2008"
          },
          "dapAn": {
            "link": "http://www.thongtintuyensinh.vn/upload/file/2008DapanVanD_Caodang.pdf",
            "statusDownload": false,
            "detail": "Văn",
            "level": "Cao đẳng",
            "text": "Đáp án khối D năm 2008"
          }
        },
        {
          "mon": "tieng anh",
          "khoi": "D",
          "deThi": {
            "link": "http://www.thongtintuyensinh.vn/upload/file/2008DeAnhD_Caodang_M293.pdf",
            "statusDownload": false,
            "level": "Cao đẳng",
            "detail": "Tiếng anh",
            "text": "Đề thi khối D năm 2008"
          },
          "dapAn": {
            "link": "http://www.thongtintuyensinh.vn/upload/file/2008DapanAnhD_Caodang.pdf",
            "statusDownload": false,
            "detail": "Tiếng anh",
            "level": "Cao đẳng",
            "text": "Đáp án khối D năm 2008"
          }
        },
        {
          "mon": "tieng nga",
          "khoi": "D",
          "deThi": {
            "link": "http://www.thongtintuyensinh.vn/upload/file/2008DeNgaD_Caodang_M473.pdf",
            "statusDownload": false,
            "level": "Cao đẳng",
            "detail": "Tiếng nga",
            "text": "Đề thi khối D năm 2008"
          },
          "dapAn": {
            "link": "http://www.thongtintuyensinh.vn/upload/file/2008DapanNgaD_Caodang.pdf",
            "statusDownload": false,
            "detail": "Tiếng nga",
            "level": "Cao đẳng",
            "text": "Đáp án khối D năm 2008"
          }
        },
        {
          "mon": "tieng trung",
          "khoi": "D",
          "deThi": {
            "link": "http://www.thongtintuyensinh.vn/upload/file/2008DeTrungD_Caodang_M468.pdf",
            "statusDownload": false,
            "level": "Cao đẳng",
            "detail": "Tiếng trung",
            "text": "Đề thi khối D năm 2008"
          },
          "dapAn": {
            "link": "http://www.thongtintuyensinh.vn/upload/file/2008DapanTrungD_Caodang.pdf",
            "statusDownload": false,
            "detail": "Tiếng trung",
            "level": "Cao đẳng",
            "text": "Đáp án khối D năm 2008"
          }
        }
      ]
    }
  ]
}