{
  "year": 2010,
  "daiHoc": [
    {
      "khoiKey": "A DH2010",
      "deThiMon": [
        {
          "mon": "Toan",
          "khoi": "A",
          "deThi": {
            "link": "http://www.thongtintuyensinh.vn/upload/file/2010DH_De_ToanA.pdf",
            "statusDownload": false,
            "detail": "Toán",
            "level": "Đại học",
            "text": "Đề thi khối A năm 2010"
          },
          "dapAn": {
            "link": "http://www.thongtintuyensinh.vn/upload/file/2010DH_DA_ToanA.pdf",
            "statusDownload": false,
            "detail": "Toán",
            "level": "Đại học",
            "text": "Đáp án khối A năm 2010"
          }
        },
        {
          "mon": "ly",
          "khoi": "A",
          "deThi": {
            "link": "http://www.thongtintuyensinh.vn/upload/file/2010DH_De_LyA.pdf",
            "statusDownload": false,
            "detail": "Lý",
            "level": "Đại học",
            "text": "Đề thi khối A năm 2010"
          },
          "dapAn": {
            "link": "http://www.thongtintuyensinh.vn/upload/file/2010DH_DA_LyA.pdf",
            "statusDownload": false,
            "detail": "Lý",
            "level": "Đại học",
            "text": "Đáp án khối A năm 2010"
          }
        },
        {
          "mon": "hoa",
          "khoi": "A",
          "deThi": {
            "link": "http://www.thongtintuyensinh.vn/upload/file/2010DH_De_HoaA.pdf",
            "statusDownload": false,
            "detail": "Hóa",
            "level": "Đại học",
            "text": "Đề thi khối A năm 2010"
          },
          "dapAn": {
            "link": "http://www.thongtintuyensinh.vn/upload/file/2010DH_DA_HoaA.pdf",
            "statusDownload": false,
            "detail": "Hóa",
            "level": "Đại học",
            "text": "Đáp án khối A năm 2010"
          }
        }
      ]
    },
    {
      "khoiKey": "B DH2010",
      "deThiMon": [
        {
          "mon": "Toan",
          "khoi": "B",
          "deThi": {
            "link": "http://www.thongtintuyensinh.vn/upload/file/2010_DeToanB.pdf",
            "statusDownload": false,
            "detail": "Toán",
            "level": "Đại học",
            "text": "Đề thi khối B năm 2010"
          },
          "dapAn": {
            "link": "http://www.thongtintuyensinh.vn/upload/file/2010_DaToanB.pdf",
            "statusDownload": false,
            "detail": "Toán",
            "level": "Đại học",
            "text": "Đáp án khối B năm 2010"
          }
        },
        {
          "mon": "hoa",
          "khoi": "B",
          "deThi": {
            "link": "http://www.thongtintuyensinh.vn/upload/file/2010_DeHoaB.pdf",
            "statusDownload": false,
            "detail": "Hóa",
            "level": "Đại học",
            "text": "Đề thi khối B năm 2010"
          },
          "dapAn": {
            "link": "http://www.thongtintuyensinh.vn/upload/file/2010_DaHoaB.pdf",
            "statusDownload": false,
            "detail": "Hóa",
            "level": "Đại học",
            "text": "Đáp án khối B năm 2010"
          }
        },
        {
          "mon": "sinh",
          "khoi": "B",
          "deThi": {
            "link": "http://www.thongtintuyensinh.vn/upload/file/2010_DeSinhB.pdf",
            "statusDownload": false,
            "detail": "Sinh",
            "level": "Đại học",
            "text": "Đề thi khối B năm 2010"
          },
          "dapAn": {
            "link": "http://www.thongtintuyensinh.vn/upload/file/2010_DaSinhB.pdf",
            "statusDownload": false,
            "detail": "Sinh",
            "level": "Đại học",
            "text": "Đáp án khối B năm 2010"
          }
        }
      ]
    },
    {
      "khoiKey": "C DH2010",
      "deThiMon": [
        {
          "mon": "Van",
          "khoi": "C",
          "deThi": {
            "link": "http://www.thongtintuyensinh.vn/upload/file/2010_DeVanC.pdf",
            "statusDownload": false,
            "detail": "Văn",
            "level": "Đại học",
            "text": "Đề thi khối C năm 2010"
          },
          "dapAn": {
            "link": "http://www.thongtintuyensinh.vn/upload/file/2010_DaVanC.pdf",
            "statusDownload": false,
            "detail": "Văn",
            "level": "Đại học",
            "text": "Đáp án khối C năm 2010"
          }
        },
        {
          "mon": "su",
          "khoi": "C",
          "deThi": {
            "link": "http://www.thongtintuyensinh.vn/upload/file/2010_DeSuC.pdf",
            "statusDownload": false,
            "detail": "Sử",
            "level": "Đại học",
            "text": "Đề thi khối C năm 2010"
          },
          "dapAn": {
            "link": "http://www.thongtintuyensinh.vn/upload/file/2010_DaSuC.pdf",
            "statusDownload": false,
            "detail": "Sử",
            "level": "Đại học",
            "text": "Đáp án khối C năm 2010"
          }
        },
        {
          "mon": "dia",
          "khoi": "C",
          "deThi": {
            "link": "http://www.thongtintuyensinh.vn/upload/file/2010_DeDiaC.pdf",
            "statusDownload": false,
            "detail": "Địa",
            "level": "Đại học",
            "text": "Đề thi khối C năm 2010"
          },
          "dapAn": {
            "link": "http://www.thongtintuyensinh.vn/upload/file/2010_DaDiaC.pdf",
            "statusDownload": false,
            "detail": "Địa",
            "level": "Đại học",
            "text": "Đáp án khối C năm 2010"
          }
        }
      ]
    },
    {
      "khoiKey": "D DH2010",
      "deThiMon": [
        {
          "mon": "toan",
          "khoi": "D",
          "deThi": {
            "link": "http://www.thongtintuyensinh.vn/upload/file/2010_DeToanD.pdf",
            "statusDownload": false,
            "detail": "Toán",
            "level": "Đại học",
            "text": "Đề thi khối D năm 2010"
          },
          "dapAn": {
            "link": "http://www.thongtintuyensinh.vn/upload/file/2010_DaToanD.pdf",
            "statusDownload": false,
            "detail": "Toán",
            "level": "Đại học",
            "text": "Đáp án khối D năm 2010"
          }
        },
        {
          "mon": "van",
          "khoi": "D",
          "deThi": {
            "link": "http://www.thongtintuyensinh.vn/upload/file/2010_DeVanD.pdf",
            "statusDownload": false,
            "detail": "Văn",
            "level": "Đại học",
            "text": "Đề thi khối D năm 2010"
          },
          "dapAn": {
            "link": "http://www.thongtintuyensinh.vn/upload/file/2010_DaVanD.pdf",
            "statusDownload": false,
            "detail": "Văn",
            "level": "Đại học",
            "text": "Đáp án khối D năm 2010"
          }
        },
        {
          "mon": "tieng anh",
          "khoi": "D",
          "deThi": {
            "link": "http://www.thongtintuyensinh.vn/upload/file/2010_DeAnhD.pdf",
            "statusDownload": false,
            "detail": "Tiếng anh",
            "level": "Đại học",
            "text": "Đề thi khối D năm 2010"
          },
          "dapAn": {
            "link": "http://www.thongtintuyensinh.vn/upload/file/2010_DaAnhD.pdf",
            "statusDownload": false,
            "detail": "Tiếng anh",
            "level": "Đại học",
            "text": "Đáp án khối D năm 2010"
          }
        },
        {
          "mon": "tieng phap",
          "khoi": "D",
          "deThi": {
            "link": "http://www.thongtintuyensinh.vn/upload/file/2010_DePhapD.pdf",
            "statusDownload": false,
            "detail": "Tiếng pháp",
            "level": "Đại học",
            "text": "Đề thi khối D năm 2010"
          },
          "dapAn": {
            "link": "http://www.thongtintuyensinh.vn/upload/file/2010_DaPhapD.pdf",
            "statusDownload": false,
            "detail": "Tiếng pháp",
            "level": "Đại học",
            "text": "Đáp án khối D năm 2010"
          }
        },
        {
          "mon": "tieng nga",
          "khoi": "D",
          "deThi": {
            "link": "http://www.thongtintuyensinh.vn/upload/file/2010_DeNgaD.pdf",
            "statusDownload": false,
            "detail": "Tiếng nga",
            "level": "Đại học",
            "text": "Đề thi khối D năm 2010"
          },
          "dapAn": {
            "link": "http://www.thongtintuyensinh.vn/upload/file/2010_DaNgaD.pdf",
            "statusDownload": false,
            "detail": "Tiếng nga",
            "level": "Đại học",
            "text": "Đáp án khối D năm 2010"
          }
        },
        {
          "mon": "tieng trung",
          "khoi": "D",
          "deThi": {
            "link": "http://www.thongtintuyensinh.vn/upload/file/2010_DeTrungD.pdf",
            "statusDownload": false,
            "detail": "Tiếng trung",
            "level": "Đại học",
            "text": "Đề thi khối D năm 2010"
          },
          "dapAn": {
            "link": "http://www.thongtintuyensinh.vn/upload/file/2010_DaTrungD.pdf",
            "statusDownload": false,
            "detail": "Tiếng trung",
            "level": "Đại học",
            "text": "Đáp án khối D năm 2010"
          }
        },
        {
          "mon": "tieng duc",
          "khoi": "D",
          "deThi": {
            "link": "http://www.thongtintuyensinh.vn/upload/file/2010_DeDucD.pdf",
            "statusDownload": false,
            "detail": "Tiếng đức",
            "level": "Đại học",
            "text": "Đề thi khối D năm 2010"
          },
          "dapAn": {
            "link": "http://www.thongtintuyensinh.vn/upload/file/2010_DaDucD.pdf",
            "statusDownload": false,
            "detail": "Tiếng đức",
            "level": "Đại học",
            "text": "Đáp án khối D năm 2010"
          }
        },
        {
          "mon": "tieng nhat",
          "khoi": "D",
          "deThi": {
            "link": "http://www.thongtintuyensinh.vn/upload/file/2010_DeNhatD.pdf",
            "statusDownload": false,
            "detail": "Tiếng nhật",
            "level": "Đại học",
            "text": "Đề thi khối D năm 2010"
          },
          "dapAn": {
            "link": "http://www.thongtintuyensinh.vn/upload/file/2010_DaNhatD.pdf",
            "statusDownload": false,
            "detail": "Tiếng nhật",
            "level": "Đại học",
            "text": "Đáp án khối D năm 2010"
          }
        }
      ]
    }
  ],
  "caoDang": [
    {
      "khoiKey": "A CD2010",
      "deThiMon": [
        {
          "mon": "Toan",
          "khoi": "A",
          "deThi": {
            "link": "http://www.thongtintuyensinh.vn/upload/file/10_De_Toan_A-CD.pdf",
            "statusDownload": false,
            "level": "Cao đẳng",
            "detail": "Toán",
            "text": "Đề thi khối A năm 2010"
          },
          "dapAn": {
            "link": "http://www.thongtintuyensinh.vn/upload/file/10_DA_Toan_A-CD.pdf",
            "statusDownload": false,
            "detail": "Toán",
            "level": "Cao đẳng",
            "text": "Đáp án khối A năm 2010"
          }
        },
        {
          "mon": "Ly",
          "khoi": "A",
          "deThi": {
            "link": "http://www.thongtintuyensinh.vn/upload/file/10_DeVatliA_CD.pdf",
            "statusDownload": false,
            "level": "Cao đẳng",
            "detail": "Lý",
            "text": "Đề thi khối A năm 2010"
          },
          "dapAn": {
            "link": "http://www.thongtintuyensinh.vn/upload/file/10_DA_Ly_A-CD.pdf",
            "statusDownload": false,
            "detail": "Lý",
            "level": "Cao đẳng",
            "text": "Đáp án khối A năm 2010"
          }
        },
        {
          "mon": "Hoa",
          "khoi": "A",
          "deThi": {
            "link": "http://www.thongtintuyensinh.vn/upload/file/10_DeHoaA_CD.pdf",
            "statusDownload": false,
            "level": "Cao đẳng",
            "detail": "Hóa",
            "text": "Đề thi khối A năm 2010"
          },
          "dapAn": {
            "link": "http://www.thongtintuyensinh.vn/upload/file/10_DA_Hoa_A-CD.pdf",
            "statusDownload": false,
            "detail": "Hóa",
            "level": "Cao đẳng",
            "text": "Đáp án khối A năm 2010"
          }
        }
      ]
    },
    {
      "khoiKey": "B CD2010",
      "deThiMon": [
        {
          "mon": "Toan",
          "khoi": "B",
          "deThi": {
            "link": "http://www.thongtintuyensinh.vn/upload/file/10_De_Toan_B-CD.pdf",
            "statusDownload": false,
            "level": "Cao đẳng",
            "detail": "Toán",
            "text": "Đề thi khối B năm 2010"
          },
          "dapAn": {
            "link": "http://www.thongtintuyensinh.vn/upload/file/10_DA_Toan_B-CD.pdf",
            "statusDownload": false,
            "detail": "Toán",
            "level": "Cao đẳng",
            "text": "Đáp án khối B năm 2010"
          }
        },
        {
          "mon": "Hoa",
          "khoi": "B",
          "deThi": {
            "link": "http://www.thongtintuyensinh.vn/upload/file/10_DeHoaB_CD.pdf",
            "statusDownload": false,
            "level": "Cao đẳng",
            "detail": "Hoá",
            "text": "Đề thi khối B năm 2010"
          },
          "dapAn": {
            "link": "http://www.thongtintuyensinh.vn/upload/file/10_DA_Hoa_B-CD.pdf",
            "statusDownload": false,
            "detail": "Hóa",
            "level": "Cao đẳng",
            "text": "Đáp án khối B năm 2010"
          }
        },
        {
          "mon": "Sinh",
          "khoi": "B",
          "deThi": {
            "link": "http://www.thongtintuyensinh.vn/upload/file/10_DeSinhB_CD.pdf",
            "statusDownload": false,
            "level": "Cao đẳng",
            "detail": "Sinh",
            "text": "Đề thi khối B năm 2010"
          },
          "dapAn": {
            "link": "http://www.thongtintuyensinh.vn/upload/file/10_DA_Sinh_B-CD.pdf",
            "statusDownload": false,
            "detail": "Sinh",
            "level": "Cao đẳng",
            "text": "Đáp án khối B năm 2010"
          }
        }
      ]
    },
    {
      "khoiKey": "C CD2010",
      "deThiMon": [
        {
          "mon": "Van",
          "khoi": "C",
          "deThi": {
            "link": "http://www.thongtintuyensinh.vn/upload/file/10_De_Van_C-CD.pdf",
            "statusDownload": false,
            "level": "Cao đẳng",
            "detail": "Văn",
            "text": "Đề thi khối C năm 2010"
          },
          "dapAn": {
            "link": "http://www.thongtintuyensinh.vn/upload/file/10_DA_Van_C-CD.pdf",
            "statusDownload": false,
            "detail": "Văn",
            "level": "Cao đẳng",
            "text": "Đáp án khối C năm 2010"
          }
        },
        {
          "mon": "Su",
          "khoi": "C",
          "deThi": {
            "link": "http://www.thongtintuyensinh.vn/upload/file/10_De_Su_C-CD.pdf",
            "statusDownload": false,
            "level": "Cao đẳng",
            "detail": "Sử",
            "text": "Đề thi khối C năm 2010"
          },
          "dapAn": {
            "link": "http://www.thongtintuyensinh.vn/upload/file/10_DA_Su_C-CD.pdf",
            "statusDownload": false,
            "detail": "Sử",
            "level": "Cao đẳng",
            "text": "Đáp án khối C năm 2010"
          }
        },
        {
          "mon": "Dia",
          "khoi": "C",
          "deThi": {
            "link": "http://www.thongtintuyensinh.vn/upload/file/10_De_Dia_C-CD.pdf",
            "statusDownload": false,
            "level": "Cao đẳng",
            "detail": "Địa",
            "text": "Đề thi khối C năm 2010"
          },
          "dapAn": {
            "link": "http://www.thongtintuyensinh.vn/upload/file/10_DA_Dia_C-CD.pdf",
            "statusDownload": false,
            "detail": "Địa",
            "level": "Cao đẳng",
            "text": "Đáp án khối C năm 2010"
          }
        }
      ]
    },
    {
      "khoiKey": "D CD2010",
      "deThiMon": [
        {
          "mon": "toan",
          "khoi": "D",
          "deThi": {
            "link": "http://www.thongtintuyensinh.vn/upload/file/10_De_Toan_D-CD.pdf",
            "statusDownload": false,
            "level": "Cao đẳng",
            "detail": "Toán",
            "text": "Đề thi khối D năm 2010"
          },
          "dapAn": {
            "link": "http://www.thongtintuyensinh.vn/upload/file/10_DA_Toan_D-CD.pdf",
            "statusDownload": false,
            "detail": "Toán",
            "level": "Cao đẳng",
            "text": "Đáp án khối D năm 2010"
          }
        },
        {
          "mon": "van",
          "khoi": "D",
          "deThi": {
            "link": "http://www.thongtintuyensinh.vn/upload/file/10_De_Van_D-CD.pdf",
            "statusDownload": false,
            "level": "Cao đẳng",
            "detail": "Văn",
            "text": "Đề thi khối D năm 2010"
          },
          "dapAn": {
            "link": "http://www.thongtintuyensinh.vn/upload/file/10_DA_Van_D-CD.pdf",
            "statusDownload": false,
            "detail": "Văn",
            "level": "Cao đẳng",
            "text": "Đáp án khối D năm 2010"
          }
        },
        {
          "mon": "tieng anh",
          "khoi": "D",
          "deThi": {
            "link": "http://www.thongtintuyensinh.vn/upload/file/10_DeAnhD_CD.pdf",
            "statusDownload": false,
            "level": "Cao đẳng",
            "detail": "Tiếng anh",
            "text": "Đề thi khối D năm 2010"
          },
          "dapAn": {
            "link": "http://www.thongtintuyensinh.vn/upload/file/10_DA_Anh_D-CD.pdf",
            "statusDownload": false,
            "detail": "Tiếng anh",
            "level": "Cao đẳng",
            "text": "Đáp án khối D năm 2010"
          }
        },
        {
          "mon": "tieng nga",
          "khoi": "D",
          "deThi": {
            "link": "http://www.thongtintuyensinh.vn/upload/file/10_DeNgaD_CD.pdf",
            "statusDownload": false,
            "level": "Cao đẳng",
            "detail": "Tiếng nga",
            "text": "Đề thi khối D năm 2010"
          },
          "dapAn": {
            "link": "http://www.thongtintuyensinh.vn/upload/file/10_DA_Nga_D-CD.pdf",
            "statusDownload": false,
            "detail": "Tiếng nga",
            "level": "Cao đẳng",
            "text": "Đáp án khối D năm 2010"
          }
        },
        {
          "mon": "tieng trung",
          "khoi": "D",
          "deThi": {
            "link": "http://www.thongtintuyensinh.vn/upload/file/10_DeTrungD_CD.pdf",
            "statusDownload": false,
            "level": "Cao đẳng",
            "detail": "Tiếng trung",
            "text": "Đề thi khối D năm 2010"
          },
          "dapAn": {
            "link": "http://www.thongtintuyensinh.vn/upload/file/10_DA_Trung_D-CD.pdf",
            "statusDownload": false,
            "detail": "Tiếng trung",
            "level": "Cao đẳng",
            "text": "Đáp án khối D năm 2010"
          }
        },
        {
          "mon": "tieng phap",
          "khoi": "D",
          "deThi": {
            "link": "http://www.thongtintuyensinh.vn/upload/file/10_DePhapD_CD.pdf",
            "statusDownload": false,
            "level": "Cao đẳng",
            "detail": "Tiếng pháp",
            "text": "Đề thi khối D năm 2010"
          },
          "dapAn": {
            "link": "http://www.thongtintuyensinh.vn/upload/file/10_DA_Phap_D-CD.pdf",
            "statusDownload": false,
            "detail": "Tiếng pháp",
            "level": "Cao đẳng",
            "text": "Đáp án khối D năm 2010"
          }
        }
      ]
    }
  ],
  "totnghiepTHPT": [
    {
      "khoiKey": "THPT2010",
      "deThiMon": [
        {
          "mon": "Toan",
          "khoi": "Hệ Trung Học Phổ Thông",
          "deThi": {
            "link": "http://www.phuyen.edu.vn/vanban/vb_dethi/DT_2_224.pdf",
            "statusDownload": false,
            "detail": "Toán",
            "level": "Tốt Nghiệp THPT",
            "text": "Đề thi Hệ THPT năm 2010"
          },
          "dapAn": {
            "link": "http://www.phuyen.edu.vn/vanban/vb_dethi/DA_2_224.pdf",
            "statusDownload": false,
            "detail": "Toán",
            "level": "Tốt Nghiệp THPT",
            "text": "Đáp án Hệ THPT năm 2010"
          }
        },
        {
          "mon": "Van",
          "khoi": "Hệ Trung Học Phổ Thông",
          "deThi": {
            "link": "http://www.phuyen.edu.vn/vanban/vb_dethi/DT_2_218.pdf",
            "statusDownload": false,
            "detail": "Văn",
            "level": "Tốt Nghiệp THPT",
            "text": "Đề thi Hệ THPT năm 2010"
          },
          "dapAn": {
            "link": "http://www.phuyen.edu.vn/vanban/vb_dethi/DA_2_218.pdf",
            "statusDownload": false,
            "detail": "Văn",
            "level": "Tốt Nghiệp THPT",
            "text": "Đáp án Hệ THPT năm 2010"
          }
        },
        {
          "mon": "Ly",
          "khoi": "Hệ Trung Học Phổ Thông",
          "deThi": {
            "link": "http://www.phuyen.edu.vn/vanban/vb_dethi/DT_2_226.pdf",
            "statusDownload": false,
            "detail": "Lý",
            "level": "Tốt Nghiệp THPT",
            "text": "Đề thi Hệ THPT năm 2010"
          },
          "dapAn": {
            "link": "http://www.phuyen.edu.vn/vanban/vb_dethi/DA_2_226.pdf",
            "statusDownload": false,
            "detail": "Lý",
            "level": "Tốt Nghiệp THPT",
            "text": "Đáp án Hệ THPT năm 2010"
          }
        },
        {
          "mon": "Hoa",
          "khoi": "Hệ Trung Học Phổ Thông",
          "deThi": {
            "link": "http://www.phuyen.edu.vn/vanban/vb_dethi/DT_2_228.pdf",
            "statusDownload": false,
            "detail": "Hóa",
            "level": "Tốt Nghiệp THPT",
            "text": "Đề thi Hệ THPT năm 2010"
          },
          "dapAn": {
            "link": "http://www.phuyen.edu.vn/vanban/vb_dethi/DA_2_228.pdf",
            "statusDownload": false,
            "detail": "Hóa",
            "level": "Tốt Nghiệp THPT",
            "text": "Đáp án Hệ THPT năm 2010"
          }
        },
        {
          "mon": "Su",
          "khoi": "Hệ Trung Học Phổ Thông",
          "deThi": {
            "link": "http://www.phuyen.edu.vn/vanban/vb_dethi/DT_2_220.pdf",
            "statusDownload": false,
            "detail": "Sử",
            "level": "Tốt Nghiệp THPT",
            "text": "Đề thi Hệ THPT năm 2010"
          },
          "dapAn": {
            "link": "http://www.phuyen.edu.vn/vanban/vb_dethi/DA_2_220.pdf",
            "statusDownload": false,
            "detail": "Sử",
            "level": "Tốt Nghiệp THPT",
            "text": "Đáp án Hệ THPT năm 2010"
          }
        },
        {
          "mon": "Dia",
          "khoi": "Hệ Trung Học Phổ Thông",
          "deThi": {
            "link": "http://www.phuyen.edu.vn/vanban/vb_dethi/DT_2_222.pdf",
            "statusDownload": false,
            "detail": "Địa",
            "level": "Tốt Nghiệp THPT",
            "text": "Đề thi Hệ THPT năm 2010"
          },
          "dapAn": {
            "link": "http://www.phuyen.edu.vn/vanban/vb_dethi/DA_2_222.pdf",
            "statusDownload": false,
            "detail": "Địa",
            "level": "Tốt Nghiệp THPT",
            "text": "Đáp án Hệ THPT năm 2010"
          }
        },
        {
          "mon": "tieng anh",
          "khoi": "Hệ Trung Học Phổ Thông",
          "deThi": {
            "link": "http://www.phuyen.edu.vn/vanban/vb_dethi/DT_2_231.pdf",
            "statusDownload": false,
            "detail": "Tiếng anh",
            "level": "Tốt Nghiệp THPT",
            "text": "Đề thi Hệ THPT năm 2010"
          },
          "dapAn": {
            "link": "http://www.phuyen.edu.vn/vanban/vb_dethi/DA_2_231.pdf",
            "statusDownload": false,
            "detail": "Tiếng anh",
            "level": "Tốt Nghiệp THPT",
            "text": "Đáp án Hệ THPT năm 2010"
          }
        },
        {
          "mon": "tieng phap",
          "khoi": "Hệ Trung Học Phổ Thông",
          "deThi": {
            "link": "http://www.phuyen.edu.vn/vanban/vb_dethi/DA_2_232.pdf",
            "statusDownload": false,
            "detail": "Tiếng pháp",
            "level": "Tốt Nghiệp THPT",
            "text": "Đề thi Hệ THPT năm 2010"
          },
          "dapAn": {
            "link": "http://www.phuyen.edu.vn/vanban/vb_dethi/DT_2_232.pdf",
            "statusDownload": false,
            "detail": "Tiếng pháp",
            "level": "Tốt Nghiệp THPT",
            "text": "Đáp án Hệ THPT năm 2010"
          }
        }
      ]
    },
    {
      "khoiKey": "GDTX2010",
      "deThiMon": [
        {
          "mon": "Toan",
          "khoi": "Hệ giáo dục thường xuyên",
          "deThi": {
            "link": "http://www.phuyen.edu.vn/vanban/vb_dethi/DT_2_225.pdf",
            "statusDownload": false,
            "detail": "Toán",
            "level": "Tốt Nghiệp THPT",
            "text": "Đề thi Hệ GDTX năm 2010"
          },
          "dapAn": {
            "link": "http://www.phuyen.edu.vn/vanban/vb_dethi/DA_2_225.pdf",
            "statusDownload": false,
            "detail": "Toán",
            "level": "Tốt Nghiệp THPT",
            "text": "Đáp án Hệ GDTX năm 2010"
          }
        },
        {
          "mon": "Van",
          "khoi": "Hệ giáo dục thường xuyên",
          "deThi": {
            "link": "http://www.phuyen.edu.vn/vanban/vb_dethi/DT_2_219.pdf",
            "statusDownload": false,
            "detail": "Văn",
            "level": "Tốt Nghiệp THPT",
            "text": "Đề thi Hệ GDTX năm 2010"
          },
          "dapAn": {
            "link": "http://www.phuyen.edu.vn/vanban/vb_dethi/DA_2_219.pdf",
            "statusDownload": false,
            "detail": "Văn",
            "level": "Tốt Nghiệp THPT",
            "text": "Đáp án Hệ GDTX năm 2010"
          }
        },
        {
          "mon": "Ly",
          "khoi": "Hệ giáo dục thường xuyên",
          "deThi": {
            "link": "http://www.phuyen.edu.vn/vanban/vb_dethi/DT_2_227.pdf",
            "statusDownload": false,
            "detail": "Lý",
            "level": "Tốt Nghiệp THPT",
            "text": "Đề thi Hệ GDTX năm 2010"
          },
          "dapAn": {
            "link": "http://www.phuyen.edu.vn/vanban/vb_dethi/DA_2_227.pdf",
            "statusDownload": false,
            "detail": "Lý",
            "level": "Tốt Nghiệp THPT",
            "text": "Đáp án Hệ GDTX năm 2010"
          }
        },
        {
          "mon": "Hoa",
          "khoi": "Hệ giáo dục thường xuyên",
          "deThi": {
            "link": "http://www.phuyen.edu.vn/vanban/vb_dethi/DT_2_229.pdf",
            "statusDownload": false,
            "detail": "Hóa",
            "level": "Tốt Nghiệp THPT",
            "text": "Đề thi Hệ GDTX năm 2010"
          },
          "dapAn": {
            "link": "http://www.phuyen.edu.vn/vanban/vb_dethi/DA_2_229.pdf",
            "statusDownload": false,
            "detail": "Hóa",
            "level": "Tốt Nghiệp THPT",
            "text": "Đáp án Hệ GDTX năm 2010"
          }
        },
        {
          "mon": "Su",
          "khoi": "Hệ giáo dục thường xuyên",
          "deThi": {
            "link": "http://www.phuyen.edu.vn/vanban/vb_dethi/DT_2_221.pdf",
            "statusDownload": false,
            "detail": "Sử",
            "level": "Tốt Nghiệp THPT",
            "text": "Đề thi Hệ GDTX năm 2010"
          },
          "dapAn": {
            "link": "http://www.phuyen.edu.vn/vanban/vb_dethi/DA_2_221.pdf",
            "statusDownload": false,
            "detail": "Sử",
            "level": "Tốt Nghiệp THPT",
            "text": "Đáp án Hệ GDTX năm 2010"
          }
        },
        {
          "mon": "Dia",
          "khoi": "Hệ giáo dục thường xuyên",
          "deThi": {
            "link": "http://www.phuyen.edu.vn/vanban/vb_dethi/DT_2_223.pdf",
            "statusDownload": false,
            "detail": "Địa",
            "level": "Tốt Nghiệp THPT",
            "text": "Đề thi Hệ GDTX năm 2010"
          },
          "dapAn": {
            "link": "http://www.phuyen.edu.vn/vanban/vb_dethi/DA_2_223.pdf",
            "statusDownload": false,
            "detail": "Địa",
            "level": "Tốt Nghiệp THPT",
            "text": "Đáp án Hệ GDTX năm 2010"
          }
        }
      ]
    }
  ]
}